…
#Esta opcion tambien guarda los datos en la variable
temp_sup_ecu
```

    ## <ERDDAP griddap> erdMH1sstdmday
    ##    Path: [Data//67632e6317d74225c2716f0f14779bb7.nc]
    ##    Last updated: [2023-02-17 16:02:40]
    ##    File size:    [3.45 mb]
    ##    Dimensions (dims/vars):   [3 X 1]
    ##    Dim names: time, latitude, longitude
    ##    Variable names: Masked Daytime Sea Surface Temperature
    ##    data.frame (rows/columns):   [860256 X 4]
    ## # A tibble: 860,256 × 4
    ##    time                   lat   lon   sst
    ##    <chr>                <dbl> <dbl> <dbl>
    ##  1 2010-01-16T00:00:00Z  2.02 -92.0  26.5
    ##  2 2010-01-16T00:00:00Z  2.02 -92.0  26.4
    ##  3 2010-01-16T00:00:00Z  2.02 -91.9  26.6
    ##  4 2010-01-16T00:00:00Z  2.02 -91.9  26.6
    ##  5 2010-01-16T00:00:00Z  2.02 -91.9  26.7
    ##  6 2010-01-16T00:00:00Z  2.02 -91.8  26.7
    ##  7 2010-01-16T00:00:00Z  2.02 -91.8  26.8
    ##  8 2010-01-16T00:00:00Z  2.02 -91.7  26.5
    ##  9 2010-01-16T00:00:00Z  2.02 -91.7  26.1
    ## 10 2010-01-16T00:00:00Z  2.02 -91.6  26.4
    ## # … with 860,246 more rows
…
