…
    ##    data.frame (rows/columns):   [585 X 25]
    ## # A tibble: 585 × 25
    ##    longi…¹ latit…² time    air  cldc  lflx qsminq  rhum  sflx  shum   slp  smina
    ##    <dbl[1> <dbl[1> <chr> <dbl> <dbl> <dbl>  <dbl> <dbl> <dbl> <dbl> <dbl>  <dbl>
    ##  1     -91       3 2010…  26.9  5.70 33.5    4.91  89    3     18.7 1011.  1.22 
    ##  2     -89       3 2010…  26.6  5.30 40      5.79  89.4  1.30  18.6 1010.  2.25 
    ##  3     -87       3 2010…  24.7  5.70  9.60   3.69  94.2  5.20  18.3 1012   2    
    ##  4     -85       3 2010…  26.6 NA    NA     NA     NA   NA     NA   1012. NA    
    ##  5     -83       3 2010…  26.9  8    13.7    5.05  80    3.60  18.4 1010.  0.820
    ##  6     -81       3 2010…  27.0  6.10 17.9    2.20  84.9  1.40  19.2 1010. -0.200
    ##  7     -79       3 2010…  23.9  8    23.5    5.67  83.8 10.1   16.8 1010.  2.40 
    ##  8     -77       3 2010…  26.0  7.5  11      4.22  77.3  2.20  19.0 1010.  0.450
    ##  9     -75       3 2010…  NA   NA    NA     NA     NA   NA     NA     NA  NA    
    ## 10     -91       1 2010…  NA   NA    NA     NA     NA   NA     NA     NA  NA    
    ## # … with 575 more rows, 13 more variables: sst <dbl>, uairt <dbl>, ulflx <dbl>,
    ## #   upstr <dbl>, uspeh <dbl>, uwnd <dbl>, vairt <dbl>, vlflx <dbl>,
    ## #   vpstr <dbl>, vspeh <dbl>, vwnd <dbl>, wspd <dbl>, wspd3 <dbl>, and
    ## #   abbreviated variable names ¹​longitude, ²​latitude
…
