…
Hacemos una busqueda de los datos disponibles en CSWC para clorofila
desde el 2015. Nos vamos a enfocar en la costa pacifica de Guatemala.

``` r
datasets_chl <- ed_search_adv(query = "chl", 
          url = "https://coastwatch.pfeg.noaa.gov/erddap/",
          keywords = "monthly",
          minTime = "2015",
          minLat = 10)

datasets_chl$info
```

    ## # A tibble: 41 × 2
    ##    title                                                                 datas…¹
    ##    <chr>                                                                 <chr>  
    ##  1 Chlorophyll a, North Pacific, NOAA VIIRS, 750m resolution, 2015-pres… erdVHN…
    ##  2 Chlorophyll a, North Pacific, NOAA VIIRS, 750m resolution, 2015-pres… erdVHN…
    ##  3 Chlorophyll, NOAA S-NPP VIIRS, Science Quality, Global 4km, Level 3,… nesdis…
    ##  4 VIIRSN, Suomi-NPP, Level-3 SMI, NASA, Global, 4km, Chlorophyll a, OC… erdVH2…
    ##  5 VIIRSN, Suomi-NPP, Level-3 SMI, NASA, Global, 4km, Chlorophyll a, OC… erdVH2…
    ##  6 Primary Productivity, Aqua MODIS, NPP, Global, 2003-present, EXPERIM… erdMH1…
    ##  7 Primary Productivity, Aqua MODIS, NPP, Global, 2003-present, EXPERIM… erdMH1…
    ##  8 KdPAR, NOAA S-NPP VIIRS, Science Quality, Global 4km, Level 3, 2012-… nesdis…
    ##  9 nLw410, NOAA S-NPP VIIRS, Science Quality, Global 4km, Level 3, 2012… nesdis…
    ## 10 nLw443, NOAA S-NPP VIIRS, Science Quality, Global 4km, Level 3, 2012… nesdis…
    ## # … with 31 more rows, and abbreviated variable name ¹​dataset_id
…
